{
"type": "FeatureCollection",
"name": "Ent5_Fem_Mun",
"features": [
{ "type": "Feature", "id": 2, "properties": { "Cve..Municipio": 5002.0, "Total": 2.0 }, "geometry": { "type": "Point", "coordinates": [ -102.010151328030005, 29.432461843933801 ] } },
{ "type": "Feature", "id": 14, "properties": { "Cve..Municipio": 5014.0, "Total": 1.0 }, "geometry": { "type": "Point", "coordinates": [ -100.951295531800994, 29.0026788992487 ] } },
{ "type": "Feature", "id": 18, "properties": { "Cve..Municipio": 5018.0, "Total": 1.0 }, "geometry": { "type": "Point", "coordinates": [ -101.194393951612, 26.896856785533199 ] } },
{ "type": "Feature", "id": 25, "properties": { "Cve..Municipio": 5025.0, "Total": 3.0 }, "geometry": { "type": "Point", "coordinates": [ -100.614500389666006, 28.779829371166201 ] } },
{ "type": "Feature", "id": 30, "properties": { "Cve..Municipio": 5030.0, "Total": 5.0 }, "geometry": { "type": "Point", "coordinates": [ -101.125108692926005, 25.029147593258202 ] } },
{ "type": "Feature", "id": 35, "properties": { "Cve..Municipio": 5035.0, "Total": 2.0 }, "geometry": { "type": "Point", "coordinates": [ -103.248919336092001, 25.170075206145899 ] } }
]
}
