{
"type": "FeatureCollection",
"name": "Ent21_Fem_Mun",
"features": [
{ "type": "Feature", "id": 1, "properties": { "Cve..Municipio": 21001.0, "Total": 1.0 }, "geometry": { "type": "Point", "coordinates": [ -97.939826418888501, 19.1033013211125 ] } },
{ "type": "Feature", "id": 3, "properties": { "Cve..Municipio": 21003.0, "Total": 1.0 }, "geometry": { "type": "Point", "coordinates": [ -98.106402596618494, 18.1589329371565 ] } },
{ "type": "Feature", "id": 15, "properties": { "Cve..Municipio": 21015.0, "Total": 1.0 }, "geometry": { "type": "Point", "coordinates": [ -98.053107841920806, 19.047276252285101 ] } },
{ "type": "Feature", "id": 19, "properties": { "Cve..Municipio": 21019.0, "Total": 2.0 }, "geometry": { "type": "Point", "coordinates": [ -98.452292195672996, 18.899069914205299 ] } },
{ "type": "Feature", "id": 34, "properties": { "Cve..Municipio": 21034.0, "Total": 1.0 }, "geometry": { "type": "Point", "coordinates": [ -98.2917454613724, 19.135234745552999 ] } },
{ "type": "Feature", "id": 51, "properties": { "Cve..Municipio": 21051.0, "Total": 1.0 }, "geometry": { "type": "Point", "coordinates": [ -98.625909487893693, 18.5103671940224 ] } },
{ "type": "Feature", "id": 69, "properties": { "Cve..Municipio": 21069.0, "Total": 1.0 }, "geometry": { "type": "Point", "coordinates": [ -98.517174049914502, 18.769286248490499 ] } },
{ "type": "Feature", "id": 74, "properties": { "Cve..Municipio": 21074.0, "Total": 1.0 }, "geometry": { "type": "Point", "coordinates": [ -98.448779063123098, 19.1671203519243 ] } },
{ "type": "Feature", "id": 98, "properties": { "Cve..Municipio": 21098.0, "Total": 1.0 }, "geometry": { "type": "Point", "coordinates": [ -97.869805163529094, 18.6686150605607 ] } },
{ "type": "Feature", "id": 114, "properties": { "Cve..Municipio": 21114.0, "Total": 6.0 }, "geometry": { "type": "Point", "coordinates": [ -98.174953184671494, 19.008433098525298 ] } },
{ "type": "Feature", "id": 115, "properties": { "Cve..Municipio": 21115.0, "Total": 1.0 }, "geometry": { "type": "Point", "coordinates": [ -97.634470585666193, 18.948157809184199 ] } },
{ "type": "Feature", "id": 126, "properties": { "Cve..Municipio": 21126.0, "Total": 1.0 }, "geometry": { "type": "Point", "coordinates": [ -98.393751690247996, 19.034921422674302 ] } },
{ "type": "Feature", "id": 156, "properties": { "Cve..Municipio": 21156.0, "Total": 4.0 }, "geometry": { "type": "Point", "coordinates": [ -97.445083765044203, 18.461287649872101 ] } },
{ "type": "Feature", "id": 164, "properties": { "Cve..Municipio": 21164.0, "Total": 1.0 }, "geometry": { "type": "Point", "coordinates": [ -97.876163825375698, 19.0119289459561 ] } },
{ "type": "Feature", "id": 169, "properties": { "Cve..Municipio": 21169.0, "Total": 1.0 }, "geometry": { "type": "Point", "coordinates": [ -97.937339112907395, 18.496748625085701 ] } },
{ "type": "Feature", "id": 195, "properties": { "Cve..Municipio": 21195.0, "Total": 1.0 }, "geometry": { "type": "Point", "coordinates": [ -97.182064605238395, 18.5303490932443 ] } },
{ "type": "Feature", "id": 197, "properties": { "Cve..Municipio": 21197.0, "Total": 1.0 }, "geometry": { "type": "Point", "coordinates": [ -97.902626580276703, 20.3266179493964 ] } },
{ "type": "Feature", "id": 207, "properties": { "Cve..Municipio": 21207.0, "Total": 1.0 }, "geometry": { "type": "Point", "coordinates": [ -97.581272684915604, 19.854369730135101 ] } }
]
}
