{
"type": "FeatureCollection",
"name": "Ent4_Fem_Mun",
"features": [
{ "type": "Feature", "id": 2, "properties": { "Cve..Municipio": 4002.0, "Total": 1.0 }, "geometry": { "type": "Point", "coordinates": [ -90.267467398519699, 19.616881071634399 ] } },
{ "type": "Feature", "id": 3, "properties": { "Cve..Municipio": 4003.0, "Total": 3.0 }, "geometry": { "type": "Point", "coordinates": [ -91.4515833024861, 18.4987721160769 ] } },
{ "type": "Feature", "id": 11, "properties": { "Cve..Municipio": 4011.0, "Total": 1.0 }, "geometry": { "type": "Point", "coordinates": [ -90.716719910669099, 18.099166115615802 ] } }
]
}
